Wrappers for mlpack • baritsu
…
wf_fit <- workflow() |>
  add_recipe(rec) |>
  add_model(spec) |>
  fit(penguins_train)

pred <- augment(wf_fit, penguins_test) |>
  dplyr::select(species, .pred_class)

pred
#> # A tibble: 86 × 2
#>    species .pred_class
#>    <fct>   <fct>      
#>  1 Adelie  Adelie     
#>  2 Adelie  Adelie     
#>  3 Adelie  Adelie     
#>  4 Adelie  Adelie     
#>  5 Adelie  Adelie     
#>  6 Adelie  Adelie     
#>  7 Adelie  Adelie     
#>  8 Adelie  Adelie     
#>  9 Adelie  Adelie     
#> 10 Adelie  Adelie     
#> # ℹ 76 more rows
…
